^F:\我的游戏\SOKOBAN\ST20103795\ST20103795\BGM.CPP|F:\我的游戏\SOKOBAN\ST20103795\ST20103795\BOX.CPP|F:\我的游戏\SOKOBAN\ST20103795\ST20103795\BUTTON.CPP|F:\我的游戏\SOKOBAN\ST20103795\ST20103795\CLIPS.CPP|F:\我的游戏\SOKOBAN\ST20103795\ST20103795\DOT.CPP|F:\我的游戏\SOKOBAN\ST20103795\ST20103795\GAME.CPP|F:\我的游戏\SOKOBAN\ST20103795\ST20103795\IMAGE.CPP|F:\我的游戏\SOKOBAN\ST20103795\ST20103795\MAIN.CPP|F:\我的游戏\SOKOBAN\ST20103795\ST20103795\MUSIC.CPP|F:\我的游戏\SOKOBAN\ST20103795\ST20103795\PLAYER.CPP|F:\我的游戏\SOKOBAN\ST20103795\ST20103795\POINT.CPP|F:\我的游戏\SOKOBAN\ST20103795\ST20103795\SCREEN.CPP|F:\我的游戏\SOKOBAN\ST20103795\ST20103795\SURFACE.CPP|F:\我的游戏\SOKOBAN\ST20103795\ST20103795\TILE.CPP|F:\我的游戏\SOKOBAN\ST20103795\ST20103795\TIMER.CPP|F:\我的游戏\SOKOBAN\ST20103795\ST20103795\TTF.CPP
F:\我的游戏\SOKOBAN\ST20103795\ST20103795\DEBUG\VC140.PDB
F:\我的游戏\SOKOBAN\ST20103795\ST20103795\DEBUG\VC140.IDB
F:\我的游戏\SOKOBAN\ST20103795\ST20103795\DEBUG\BGM.OBJ
F:\我的游戏\SOKOBAN\ST20103795\ST20103795\DEBUG\BOX.OBJ
F:\我的游戏\SOKOBAN\ST20103795\ST20103795\DEBUG\BUTTON.OBJ
F:\我的游戏\SOKOBAN\ST20103795\ST20103795\DEBUG\CLIPS.OBJ
F:\我的游戏\SOKOBAN\ST20103795\ST20103795\DEBUG\DOT.OBJ
F:\我的游戏\SOKOBAN\ST20103795\ST20103795\DEBUG\GAME.OBJ
F:\我的游戏\SOKOBAN\ST20103795\ST20103795\DEBUG\IMAGE.OBJ
F:\我的游戏\SOKOBAN\ST20103795\ST20103795\DEBUG\MAIN.OBJ
F:\我的游戏\SOKOBAN\ST20103795\ST20103795\DEBUG\MUSIC.OBJ
F:\我的游戏\SOKOBAN\ST20103795\ST20103795\DEBUG\PLAYER.OBJ
F:\我的游戏\SOKOBAN\ST20103795\ST20103795\DEBUG\POINT.OBJ
F:\我的游戏\SOKOBAN\ST20103795\ST20103795\DEBUG\SCREEN.OBJ
F:\我的游戏\SOKOBAN\ST20103795\ST20103795\DEBUG\SURFACE.OBJ
F:\我的游戏\SOKOBAN\ST20103795\ST20103795\DEBUG\TILE.OBJ
F:\我的游戏\SOKOBAN\ST20103795\ST20103795\DEBUG\TIMER.OBJ
F:\我的游戏\SOKOBAN\ST20103795\ST20103795\DEBUG\TTF.OBJ
^F:\我的游戏\SOKOBAN\ST20103795\ST20103795\BGM.CPP
F:\我的游戏\SOKOBAN\ST20103795\ST20103795\DEBUG\VC140.PDB
^F:\我的游戏\SOKOBAN\ST20103795\ST20103795\BOX.CPP
F:\我的游戏\SOKOBAN\ST20103795\ST20103795\DEBUG\VC140.PDB
^F:\我的游戏\SOKOBAN\ST20103795\ST20103795\BUTTON.CPP
F:\我的游戏\SOKOBAN\ST20103795\ST20103795\DEBUG\VC140.PDB
^F:\我的游戏\SOKOBAN\ST20103795\ST20103795\CLIPS.CPP
F:\我的游戏\SOKOBAN\ST20103795\ST20103795\DEBUG\VC140.PDB
^F:\我的游戏\SOKOBAN\ST20103795\ST20103795\DOT.CPP
F:\我的游戏\SOKOBAN\ST20103795\ST20103795\DEBUG\VC140.PDB
^F:\我的游戏\SOKOBAN\ST20103795\ST20103795\GAME.CPP
F:\我的游戏\SOKOBAN\ST20103795\ST20103795\DEBUG\VC140.PDB
F:\我的游戏\SOKOBAN\ST20103795\ST20103795\DEBUG\VC140.IDB
F:\我的游戏\SOKOBAN\ST20103795\ST20103795\DEBUG\GAME.OBJ
^F:\我的游戏\SOKOBAN\ST20103795\ST20103795\IMAGE.CPP
F:\我的游戏\SOKOBAN\ST20103795\ST20103795\DEBUG\VC140.PDB
^F:\我的游戏\SOKOBAN\ST20103795\ST20103795\MAIN.CPP
F:\我的游戏\SOKOBAN\ST20103795\ST20103795\DEBUG\VC140.PDB
^F:\我的游戏\SOKOBAN\ST20103795\ST20103795\MUSIC.CPP
F:\我的游戏\SOKOBAN\ST20103795\ST20103795\DEBUG\VC140.PDB
^F:\我的游戏\SOKOBAN\ST20103795\ST20103795\PLAYER.CPP
F:\我的游戏\SOKOBAN\ST20103795\ST20103795\DEBUG\VC140.PDB
^F:\我的游戏\SOKOBAN\ST20103795\ST20103795\POINT.CPP
F:\我的游戏\SOKOBAN\ST20103795\ST20103795\DEBUG\VC140.PDB
^F:\我的游戏\SOKOBAN\ST20103795\ST20103795\SCREEN.CPP
F:\我的游戏\SOKOBAN\ST20103795\ST20103795\DEBUG\VC140.PDB
^F:\我的游戏\SOKOBAN\ST20103795\ST20103795\SURFACE.CPP
F:\我的游戏\SOKOBAN\ST20103795\ST20103795\DEBUG\VC140.PDB
^F:\我的游戏\SOKOBAN\ST20103795\ST20103795\TILE.CPP
F:\我的游戏\SOKOBAN\ST20103795\ST20103795\DEBUG\VC140.PDB
^F:\我的游戏\SOKOBAN\ST20103795\ST20103795\TIMER.CPP
F:\我的游戏\SOKOBAN\ST20103795\ST20103795\DEBUG\VC140.PDB
^F:\我的游戏\SOKOBAN\ST20103795\ST20103795\TTF.CPP
F:\我的游戏\SOKOBAN\ST20103795\ST20103795\DEBUG\VC140.PDB
